<?xml version="1.0" encoding="UTF-8"?>
<svg width="32px" height="32px" viewBox="0 0 32 32" version="1.1" xmlns="http://www.w3.org/2000/svg" xmlns:xlink="http://www.w3.org/1999/xlink">
    <title>arrow</title>
    <g id="wiko_support_faq" stroke="none" stroke-width="1" fill="none" fill-rule="evenodd">
        <g id="wiko_support_faq_01高保真" transform="translate(-1488.000000, -1652.000000)" fill="#CCCCCC" fill-rule="nonzero">
            <g id="编组-3" transform="translate(0.000000, 1326.000000)">
                <g id="01备份" transform="translate(360.000000, 294.000000)">
                    <path d="M1144,42.2 L1151,49.2 L1148.2,52 L1144,47.8 L1139.8,52 L1137,49.2 L1144,42.2 Z M1144,64 C1135.2,64 1128,56.8 1128,48 C1128,39.2 1135.2,32 1144,32 C1152.8,32 1160,39.2 1160,48 C1160,56.8 1152.8,64 1144,64 Z M1144,60 C1150.6,60 1156,54.6 1156,48 C1156,41.4 1150.6,36 1144,36 C1137.4,36 1132,41.4 1132,48 C1132,54.6 1137.4,60 1144,60 Z" id="arrow" transform="translate(1144.000000, 48.000000) rotate(-270.000000) translate(-1144.000000, -48.000000) "></path>
                </g>
            </g>
        </g>
    </g>
</svg>